{
  "type": "panel",
  "name": "Treemap Diagram",
  "id": "grafana-treemap-panel",

  "info": {
    "description": "Treemap diagram panel for grafana",
    "author": {
      "name": "Ural Sezer",
      "url": "http://detangle.com"
    },
    "keywords": ["treemap", "panel"],
    "logos": {
      "small": "img/treemap_diagram_small.png",
      "large": "img/treemap_diagram_large.png"
    },
    "links": [
      {"name": "Project site", "url": "https://gitlab.com/uralsezer/grafana-treemap-panel"}
    ],
    "screenshots": [
    ],
    "version": "0.1.0",
    "updated": "2018-10-1"
  },

  "dependencies": {
    "grafanaVersion": "4.6",
    "plugins": [ ]
  }
}
